Non-linear mixed effects models - 1 NLME models for antibody concentration decay
…
time <- seq(range_time[1], range_time[2], 1)

#psi_vals <- c(range_abelisa_average[1], range_abelisa_average[2], 0.007)
psi_vals <- c(range_abelisa_average[1], range_abelisa_average[2], 0.0065)

tb_f_approx <- tibble(
  time  = time,
  f = f_approx(psi_vals, time)
)

tb_f_approx
#> # A tibble: 724 × 2
#>    time     f
#>   <dbl> <dbl>
#> 1     7  4.04
#> 2     8  4.03
#> 3     9  4.02
#> 4    10  4.01
#> 5    11  4.00
#> 6    12  4.00
#> # ℹ 718 more rows
…
psi3
0.0073556
0.0010835
6.788539
0.0024586

Code
tb_sub_1_pred <- tb_f_approx |>
  mutate(
  prediction = predict(nls_sub_1, newdata = tb_f_approx)  
  )
tb_sub_1_pred
#> # A tibble: 724 × 3
#>    time     f prediction
#>   <dbl> <dbl>      <dbl>
#> 1     7  4.04       4.34
#> 2     8  4.03       4.32
#> 3     9  4.02       4.31
#> 4    10  4.01       4.29
#> 5    11  4.00       4.28
#> 6    12  4.00       4.27
#> # ℹ 718 more rows
…
  tb_sub_i_pred <- tb_sub_i_pred |>
    mutate(pred = predict(nls_sub_i, newdata = tb_sub_i_pred))
  
  sub_indiv <- bind_rows(sub_indiv, tb_sub_i_pred)
  }

sub_indiv <- sub_indiv |>
  relocate(id, .before = time) |>
  mutate(
    id = factor(id, ordered = TRUE)
  )
sub_indiv
#> # A tibble: 31,132 × 3
#>   id     time  pred
#>   <ord> <dbl> <dbl>
#> 1 ID1       7  4.34
#> 2 ID1       8  4.32
#> 3 ID1       9  4.31
#> 4 ID1      10  4.29
#> 5 ID1      11  4.28
#> 6 ID1      12  4.27
#> # ℹ 31,126 more rows
…
Figure 1.25: The antibody concentration during time for all subjects and the NLM individual predictions

1.7 Non-linear mixed effects (NLME) model - no covariates

Will be done via stochastic approximation expectation maximization (SAEM) using the saemix package.

First thing: account for the specificity of saemix which expects the id column in the data frame to be of numerical type. The next chunk is re-transforming the id column in the tibble into a numerical variable and parse the numerical value (i.e. removes “ID” from “IDi”)

Code
tb_after_7 <- tb_after_7 |>
  mutate(
    id = parse_number(as.character(id))
    )
tb_after_7
#> # A tibble: 301 × 8
#>      id  time sex      age age_updated   bmi country     abelisa
#>   <dbl> <dbl> <fct>  <dbl>       <dbl> <dbl> <fct>         <dbl>
#> 1     1     7 Female  35.5        35.5  20.7 West Africa    4.43
#> 2     1    15 Female  35.5        35.5  20.7 West Africa    4.12
#> 3     1    30 Female  35.5        35.6  20.7 West Africa    4.05
#> 4     1    90 Female  35.5        35.7  20.7 West Africa    3.38
#> 5     1   180 Female  35.5        36.0  20.7 West Africa    2.94
#> 6     1   365 Female  35.5        36.5  20.7 West Africa    2.61
#> # ℹ 295 more rows
…
