Non-linear mixed effects models - 2 NLME model - no covariates
…
tb_after_7 <- tb_clean |>
  filter(time != 0)

Will be done via stochastic approximation expectation maximization (SAEM) using the saemix package.

First thing: account for the specificity of saemix which expects the id column in the data frame to be of numerical type. The next chunk is re-transforming the id column in the tibble into a numerical variable and parse the numerical value (i.e. removes “ID” from “IDi”)

Code
tb_after_7 <- tb_after_7 |>
  mutate(
    id = parse_number(as.character(id))
    )
tb_after_7
#> # A tibble: 301 × 8
#>      id  time sex      age age_updated   bmi country     abelisa
#>   <dbl> <dbl> <fct>  <dbl>       <dbl> <dbl> <fct>         <dbl>
#> 1     1     7 Female  35.5        35.5  20.7 West Africa    4.43
#> 2     1    15 Female  35.5        35.5  20.7 West Africa    4.12
#> 3     1    30 Female  35.5        35.6  20.7 West Africa    4.05
#> 4     1    90 Female  35.5        35.7  20.7 West Africa    3.38
#> 5     1   180 Female  35.5        36.0  20.7 West Africa    2.94
#> 6     1   365 Female  35.5        36.5  20.7 West Africa    2.61
#> # ℹ 295 more rows
…
